%YAML 1.1
%TAG !u! tag:unity3d.com,2011:
--- !u!78 &1
TagManager:
  serializedVersion: 2
  tags:
  - MainController
  - Terrain
  - NavigationMesh
  - Flora
  - Water
  - Fauna
  - GameCamera
  - Music
  - Ambient
  - PauseMenu
  - Obstacle
  - LevelController
  - ObjectPool
  - UICanvas
  - DeadMenu
  - HomeController
  layers:
  - Default
  - TransparentFX
  - Ignore Raycast
  - 
  - Water
  - UI
  - 
  - 
  - Sensor
  - Player
  - Terrain
  - Background
  - PostProcessing
  - 
  - 
  - 
  - 
  - 
  - 
  - 
  - 
  - 
  - 
  - 
  - 
  - 
  - 
  - 
  - 
  - 
  - 
  - 
  m_SortingLayers:
  - name: Background
    uniqueID: 889243793
    locked: 0
  - name: BackgroundTerrain
    uniqueID: 3050878341
    locked: 0
  - name: Particles
    uniqueID: 3603090819
    locked: 0
  - name: Default
    uniqueID: 0
    locked: 0
